{
  "files": {
    "main.css": "/static/css/main.afa697ce.css",
    "main.js": "/static/js/main.3a762cfd.js",
    "index.html": "/index.html",
    "main.afa697ce.css.map": "/static/css/main.afa697ce.css.map",
    "main.3a762cfd.js.map": "/static/js/main.3a762cfd.js.map"
  },
  "entrypoints": [
    "static/css/main.afa697ce.css",
    "static/js/main.3a762cfd.js"
  ]
}